<?xml version="1.0" standalone="no"?>
<!DOCTYPE svg PUBLIC "-//W3C//DTD SVG 20010904//EN"
 "http://www.w3.org/TR/2001/REC-SVG-20010904/DTD/svg10.dtd">
<svg version="1.0" xmlns="http://www.w3.org/2000/svg"
 width="295.000000pt" height="295.000000pt" viewBox="0 0 295.000000 295.000000"
 preserveAspectRatio="xMidYMid meet">
<metadata>
Created by potrace 1.11, written by Peter Selinger 2001-2013
</metadata>
<g transform="translate(0.000000,295.000000) scale(0.100000,-0.100000)"
fill="#000000" stroke="none">
<path d="M737 2212 l-737 -737 738 -738 738 -738 737 733 c405 404 737 738
737 743 0 7 -1356 1364 -1452 1452 l-24 22 -737 -737z m1193 -137 c245 -245
443 -445 440 -446 -3 -1 -272 -2 -598 -3 l-592 -2 147 148 c123 123 149 145
162 135 8 -7 41 -39 73 -72 l59 -60 199 -1 c110 -1 200 1 200 4 0 8 -533 542
-541 542 -3 0 -163 -156 -355 -347 l-349 -348 -97 -1 c-54 0 -98 2 -98 4 0 9
886 890 895 891 6 1 210 -199 455 -444z m-168 -754 c3 0 -59 -66 -140 -146
l-146 -146 -75 74 -76 74 -198 1 -199 0 24 -25 c54 -59 522 -523 528 -523 3 0
162 156 352 348 l347 347 78 -1 c43 -1 87 -2 98 -3 14 -1 -108 -129 -425 -446
-245 -245 -448 -445 -452 -445 -8 0 -898 883 -898 891 0 3 1162 4 1182 0z"/>
</g>
</svg>
